Project 1: Exploratory Data Analysis
…
The mutate function was initially used to create a new numeric variable that represents the percentage of people fully vaccinated in each state, as represented by the new variable ‘vaccination percentage’. The mutate and filter functions were also used to create a new categorical variable called ‘vaccination percentage cat’, which categorizes the percentage of people fully vaccinated in each state into high, med, and low. Using the summarize function, a table of the summary statistics was created to show data of the mean, median, sd, variance, min, and max of each numerical variable. This summary statistics table was tidied using pivot_longer, which ordered the column names and their variables into two columns that were then separated into separate columns for the variable names and summary statistics by using separate(). To shift the rows into columns and make the table wide, pivot_wider() was used, followed by arrange() to alphabetize the statistic column.

The summary statistics table was grouped by the ‘vaccination percentage cat’ variable by using group_by(), select(), and summarize(). To reshape the new table, pivot_longer(), separate(), pivot_wider(), and arrange() are used just like the previous overall summary statistics table. This new table shows the statistics of mean, median, sd, var, min, and max of each numerical variable for the high, med, and low groups. A correlation matrix is also created for all of the numeric variables in the data, and it shows that there are high correlations between ICU beds and infected, people fully vaccinated and population, infected and population, and ICU beds and population.

Visualizing

tidycor <- cor_data %>% as.data.frame %>% rownames_to_column("var1") %>% 
    pivot_longer(-1, names_to = "var2", values_to = "correlation")
tidycor

## # A tibble: 100 x 3
##    var1     var2                    correlation
##    <chr>    <chr>                         <dbl>
##  1 Infected Infected                     1     
##  2 Infected Deaths                       0.844 
##  3 Infected Population                   0.958 
##  4 Infected ICU Beds                     0.962 
##  5 Infected Income                       0.111 
##  6 Infected GDP                         -0.0312
##  7 Infected Unemployment                -0.0217
##  8 Infected Health Spending             -0.275 
##  9 Infected people fully vaccinated      0.943 
## 10 Infected vaccination percentage      -0.409 
## # … with 90 more rows
…
