Project 2: Modeling, Testing, and Predicting
…
2 - Randomization test

stroke1 <- stroke %>% select(gender, bmi)
stroke1

## # A tibble: 4,909 x 2
##    gender   bmi
##    <chr>  <dbl>
##  1 Male    36.6
##  2 Male    32.5
##  3 Female  34.4
##  4 Female  24  
##  5 Male    29  
##  6 Male    27.4
##  7 Female  22.8
##  8 Female  24.2
##  9 Female  29.7
## 10 Female  36.8
## # … with 4,899 more rows
…
